10 Vector Data – ENVS543-Book
…
Warning: `as_data_frame()` was deprecated in tibble 2.0.0.
ℹ Please use `as_tibble()` (with slightly different semantics) to convert to a
  tibble, or `as.data.frame()` to convert to a data frame.

Warning: Using one column matrices in `filter()` was deprecated in dplyr 1.1.0.
ℹ Please use one dimensional logical vectors instead.

# A tibble: 39 × 1
   `Street Name` 
   <chr>         
 1 Allison St    
 2 Birch St      
 3 Boyd St       
 4 Floyd Ave     
 5 Grove Ave     
 6 Hanover Ave   
 7 Kensington Ave
 8 Lombardy Pl   
 9 Madumbie Lane 
10 Monument Ave  
# ℹ 29 more rows
…
